CAUSAL DATA SCIENCE FOR BUSINESS ANALYTICS - 4 - Matching
…
Downloading, reading and printing the data, we see that each row represents an observation detailing the daily sales of a particular business with additional information such as the weekday and the product rating. In total, you collected 10’000 observations.

Reading and printing the data, it’s evident that each of the 10’000 rows represents an observation detailing the daily sales of a specific business, accompanied by supplementary information like the weekday and product rating.

library(tidyverse)

Warning: Paket 'ggplot2' wurde unter R Version 4.3.2 erstellt

Warning: Paket 'tidyr' wurde unter R Version 4.3.2 erstellt

prices <- readRDS("prices.rds")
print(prices)

# A tibble: 10,000 × 4
   weekday rating price sales
     <int>  <dbl> <dbl> <int>
 1       4    4    26.5    37
 2       3    4.2  31      39
 3       1    4    30      63
 4       7    3.6  28.6    56
 5       3    4    28.4    26
 6       4    4.8  30.2    38
 7       5    4.6  29      45
 8       5    4.8  29.7    41
 9       7    4.3  29.7    43
10       4    4    29.1    48
# ℹ 9,990 more rows
…
Residual standard error: 18 on 9998 degrees of freedom
Multiple R-squared:  0.0362,    Adjusted R-squared:  0.0361 
F-statistic:  375 on 1 and 9998 DF,  p-value: <2e-16

Matching

Imagine another situation. You are operating an online shop, and a year ago, introduced a plus membership aimed at binding customers and driving revenue growth. The plus memberships comes at a small cost for the customers, which is why not all of the customers subscribed. Now you want to examine whether binding customers by this membership program in fact increases your sales with subscribed customers. However, it’s essential to consider potential confounding variables such as age, gender, or previous average purchase amounts.

Each row in your dataset corresponds to a different customer, with accompanying demographic details, their average purchase sum before the introduction of the plus membership, their current average purchase, and an indication of their participation in the plus membership program.

# Read data and show
membership <- readRDS("membership.rds")
print(membership)

# A tibble: 1,000 × 5
     age   sex pre_avg_purch  card avg_purch
   <dbl> <int>         <dbl> <int>     <dbl>
 1  31.7     0          22.4     1    47.2  
 2  41.5     1          32.5     0    72.7  
 3  23.2     0          31.5     1    57.4  
 4  67.1     1          47.5     1    87.8  
 5  27.4     1          30.3     1    72.5  
 6  53.7     1          30.8     1    54.0  
 7  40.2     0          37.7     0    10.2  
 8  26.7     0          25.5     1    42.0  
 9  28.7     0          26.0     0     0.561
10  35.2     1          46.5     1    70.0  
# ℹ 990 more rows
…
Sample Sizes:
              Control Treated
All               547     453
Matched (ESS)     210     453
Matched           288     453
Unmatched         259       0
Discarded           0       0

The next step, the estimation, we will perform using the known lm() command. But we’ll need the matched data which includes the matched rows and the corresponding weights.

# Use matched data
df_1v1 <- match.data(match_1v1)
print(df_1v1)

# A tibble: 741 × 6
     age   sex pre_avg_purch  card avg_purch weights
   <dbl> <int>         <dbl> <int>     <dbl>   <dbl>
 1  31.7     0          22.4     1      47.2   1    
 2  41.5     1          32.5     0      72.7   1.27 
 3  23.2     0          31.5     1      57.4   1    
 4  67.1     1          47.5     1      87.8   1    
 5  27.4     1          30.3     1      72.5   1    
 6  53.7     1          30.8     1      54.0   1    
 7  40.2     0          37.7     0      10.2   0.636
 8  26.7     0          25.5     1      42.0   1    
 9  35.2     1          46.5     1      70.0   1    
10  21.8     0          35.7     1      45.5   1    
# ℹ 731 more rows
…
Sample Sizes:
              Control Treated
All               547     453
Matched (ESS)     547     197
Matched           547     288
Unmatched           0     165
Discarded           0       0

Code
# Use matched data
df_1v1_atu <- match.data(match_1v1_atu)
print(df_1v1_atu)

# A tibble: 835 × 6
     age   sex pre_avg_purch  card avg_purch weights
   <dbl> <int>         <dbl> <int>     <dbl>   <dbl>
 1  31.7     0          22.4     1    47.2     1.05 
 2  41.5     1          32.5     0    72.7     1    
 3  23.2     0          31.5     1    57.4     1.58 
 4  67.1     1          47.5     1    87.8     0.527
 5  27.4     1          30.3     1    72.5     1.05 
 6  53.7     1          30.8     1    54.0     1.05 
 7  40.2     0          37.7     0    10.2     1    
 8  26.7     0          25.5     1    42.0     1.05 
 9  28.7     0          26.0     0     0.561   1    
10  21.8     0          35.7     1    45.5     1.58 
# ℹ 825 more rows
…
Sample Sizes:
              Control Treated
All               547     453
Matched (ESS)     326     453
Matched           462     453
Unmatched          85       0
Discarded           0       0

Code
# Use matched data
df_1vM <- match.data(match_1vM)
print(df_1vM)

# A tibble: 915 × 6
     age   sex pre_avg_purch  card avg_purch weights
   <dbl> <int>         <dbl> <int>     <dbl>   <dbl>
 1  31.7     0          22.4     1    47.2     1    
 2  41.5     1          32.5     0    72.7     0.680
 3  23.2     0          31.5     1    57.4     1    
 4  67.1     1          47.5     1    87.8     1    
 5  27.4     1          30.3     1    72.5     1    
 6  53.7     1          30.8     1    54.0     1    
 7  40.2     0          37.7     0    10.2     1.02 
 8  26.7     0          25.5     1    42.0     1    
 9  28.7     0          26.0     0     0.561   0.340
10  35.2     1          46.5     1    70.0     1    
# ℹ 905 more rows
…
Code
# Equivalent:
# match_ps2 <- matchit(
#   card ~ propensity,
#   data = membership,
#   estimand = "ATT",
#   ratio = 1,
#   replace = TRUE
# )

# Use matched data
df_ps <- match.data(match_ps)
print(df_ps)

# A tibble: 715 × 7
     age   sex pre_avg_purch  card avg_purch propensity weights
   <dbl> <int>         <dbl> <int>     <dbl>      <dbl>   <dbl>
 1  31.7     0          22.4     1      47.2      0.320   1    
 2  41.5     1          32.5     0      72.7      0.423   0.578
 3  23.2     0          31.5     1      57.4      0.368   1    
 4  67.1     1          47.5     1      87.8      0.608   1    
 5  27.4     1          30.3     1      72.5      0.373   1    
 6  53.7     1          30.8     1      54.0      0.440   1    
 7  40.2     0          37.7     0      10.2      0.458   0.578
 8  26.7     0          25.5     1      42.0      0.331   1    
 9  35.2     1          46.5     1      70.0      0.522   1    
10  21.8     0          35.7     1      45.5      0.397   1    
# ℹ 705 more rows
…
