CAUSAL DATA SCIENCE FOR BUSINESS ANALYTICS - 4 - Matching
…
Tip

There are many terms used to account for a confounder which are used interchangeably. Among other, depending on the perspective, you could “block a backdoor path”, “condition on a confounder”, “adjust for the confounder”, or “control for the confounder”.

Regression adjustment

In this scenario, similar to the example from the first week, you’re the owner of an online marketplace enterprise aiming to assist businesses on your platform with strategic pricing guidance. However, please recall that these businesses operate anonymously and independently determine their pricing, rendering the treatment non-randomized. Once more, our focus remains on a particular category of similar products: light jackets. While in the initial week, we denoted the treatment as being on sale, this time, we adopt a more precise approach, utilizing price — a continuous variable - as the treatment.

DOWNLOAD LINK. Potentially add temperature^2 (light jacket e.g.). make rating more continous.

Reading and printing the data, we see that each row represents an observation detailing the daily sales of a particular business with additional information such as the weekday and the product rating. In total, you collected 10’000 observations.

Reading and printing the data, it’s evident that each of the 10’000 rows represents an observation detailing the daily sales of a specific business, accompanied by supplementary information like the weekday and product rating.

# A tibble: 10,000 × 6
   weekday rating price sales sales_hat price_hat
     <int>  <dbl> <dbl> <int>     <dbl>     <dbl>
 1       4    4    26.5    37     0.501  -2.45   
 2       3    4.2  31      39    -7.66    1.82   
 3       1    4    30      63    -8.04   -0.00470
 4       7    3.6  28.6    56   -14.8    -1.03   
 5       3    4    28.4    26   -13.2    -0.566  
 6       4    4.8  30.2    38    -2.53    0.469  
 7       5    4.6  29      45     2.13   -0.568  
 8       5    4.8  29.7    41     0.137  -0.0557 
 9       7    4.3  29.7    43   -21.4    -0.590  
10       4    4    29.1    48     3.79    0.131  
# ℹ 9,990 more rows
…
Matching

Imagine another situation. You are operating an online shop, and a year ago, introduced a plus membership aimed at binding customers and driving revenue growth. The plus memberships comes at a small cost for the customers, which is why not all of the customers subscribed. Now you want to examine whether binding customers by this membership program in fact increases your sales with subscribed customers. However, it’s essential to consider potential confounding variables such as age, gender, or previous average purchase amounts.

Each row in your dataset corresponds to a different customer, with accompanying demographic details, their average purchase sum before the introduction of the plus membership, their current average purchase, and an indication of their participation in the plus membership program.

ADD DOWNLOAD LINK.

# Read data and show
membership <- readRDS("membership.rds")
#membership <- readRDS("content/course_weeks/week_04/membership.rds")
print(membership)

# A tibble: 1,000 × 5
     age   sex pre_avg_purch  card avg_purch
   <dbl> <int>         <dbl> <int>     <dbl>
 1  31.7     0          22.4     1    47.2  
 2  41.5     1          32.5     0    72.7  
 3  23.2     0          31.5     1    57.4  
 4  67.1     1          47.5     1    87.8  
 5  27.4     1          30.3     1    72.5  
 6  53.7     1          30.8     1    54.0  
 7  40.2     0          37.7     0    10.2  
 8  26.7     0          25.5     1    42.0  
 9  28.7     0          26.0     0     0.561
10  35.2     1          46.5     1    70.0  
# ℹ 990 more rows
…
