CAUSAL DATA SCIENCE FOR BUSINESS ANALYTICS - 1 - Introduction to Causal Inference
…
avg_week_sales: historical average of sales indicating business size

is_on_sale: sale/price reduction indicator

weekly_amount_sold: average weekly sales during that week

Note

There are many other ways to get a first look at your data instead of simply entering the variable name or use print(). Often times you will see head(data, n) to see the first \(n\) lines. Just the same you can use tail(data, n) to see the \(n\) last lines. If it is mainly numeric data, summary() provides a good overview. If you have many columns, glimpse() from the dplyr package contained in the tidyverse helps you.

# Simply enter the table name to show its content
print(sales)

# A tibble: 2,000 × 5
   store weeks_to_xmas avg_week_sales is_on_sale weekly_amount_sold
   <dbl>         <dbl>          <dbl> <lgl>                   <dbl>
 1     1             3           13.0 TRUE                    220. 
 2     1             2           13.0 TRUE                    185. 
 3     1             1           13.0 TRUE                    146. 
 4     1             0           13.0 FALSE                   102. 
 5     2             3           19.9 FALSE                   103. 
 6     2             2           19.9 FALSE                    53.7
 7     2             1           19.9 FALSE                    13.8
 8     2             0           19.9 FALSE                     0  
 9     3             3           18.5 FALSE                    97.0
10     3             2           18.5 FALSE                    54.7
# ℹ 1,990 more rows
…
