CAUSAL DATA SCIENCE FOR BUSINESS ANALYTICS - 2 - Graphical Causal Models
…
Effect of hiring consultants

Consider this scenario: You aim to determine the effectiveness of hiring top consultants for your company and quantify this impact. You have access to a large company database containing profit data from both the previous and current years, along with information on whether companies have hired top consultants.

First, we are going to load the data (You’ll need to download the data first).

Note

The .rds format is a specific R format preferred over other format like .csv when you are working only in R. It preserves R-specific attributes and structure and loads and saves objects efficiently with readRDS() and saveRDS(), respectively.

# Load the data
profits <- readRDS("profits.rds")
print(profits)

# A tibble: 1,000 × 4
   company previous_profit consultant profit
     <int>           <dbl>      <int>  <dbl>
 1       1            7.46          1   7.44
 2       2            5.92          0   5.03
 3       3            7.47          1   7.32
 4       4            8.73          1   8.39
 5       5            6.65          0   5.75
 6       6            2.47          0   2.13
 7       7            4.59          0   4.06
 8       8            5.80          1   5.99
 9       9            5.83          1   5.9 
10      10            4.39          0   3.72
# ℹ 990 more rows
…
