CAUSAL DATA SCIENCE FOR BUSINESS ANALYTICS - 10 - Difference-in-Differences (2/2)
…
# A tibble: 7 × 3
  group  d_it n_unit
  <dbl> <dbl>  <int>
1     0     0     25
2     8     0     25
3     8     1     25
4     9     0     25
5     9     1     25
6    10     0     25
7    10     1     25

units_k <- stream |> group_by(group, d_it_k) |> summarise(n_unit = n_distinct(unit)) |> ungroup()
print(units_k)

# A tibble: 46 × 3
   group d_it_k n_unit
   <dbl>  <dbl>  <int>
 1     0    Inf     25
 2     8     -7     25
 3     8     -6     25
 4     8     -5     25
 5     8     -4     25
 6     8     -3     25
 7     8     -2     25
 8     8     -1     25
 9     8      0     25
10     8      1     25
# ℹ 36 more rows
…
