CAUSAL DATA SCIENCE FOR BUSINESS ANALYTICS - 7 - Unobserved Confounding & Instrumental Variables
…
This setup avoids running an A/B test on the feature itself by using an encouragement design, which is often more acceptable from a business perspective, particularly when there is a desire to roll out a feature to all users.

# Load tidyverse
library(tidyverse)

Warning: Paket 'ggplot2' wurde unter R Version 4.3.2 erstellt

Warning: Paket 'tidyr' wurde unter R Version 4.3.2 erstellt

# Load data and print
df <- readRDS("rand_enc.rds")
print(df)

# A tibble: 10,000 × 3
   popup used_ftr time_spent
   <int>    <int>      <dbl>
 1     0        0       65.5
 2     0        0       77.5
 3     1        0       70.8
 4     0        0       58.5
 5     0        1       86.1
 6     1        1       67.7
 7     0        0       68.1
 8     0        0       63.3
 9     1        1       69.2
10     0        0       60.9
# ℹ 9,990 more rows
…
