CAUSAL DATA SCIENCE FOR BUSINESS ANALYTICS - 3 - Randomized Experiments & Linear Regression
…
Last week, our attention was dedicated to identification with the aid of graphical models. This week, our focus shifts to establishing the connection between causal identification and estimation. This section delves into randomized experiments, widely regarded as the gold standard for causal inference, and linear regression, recognized as the workhorse of causal inference. Randomization is the best way to make treatment and control group comparable, allowing us to go from mere association to causation. Linear regression equips us with the tools to extract statistical information necessary to assess the level of confidence level we have in our estimates.

Effect of introducing a new feature

Let’s jump right into an example of a randomized experiment to grasp the advantages over observational studies. Imagine you’re part of the business analytics team at a software company. Your task is to analyze the impact of introducing a new feature on the time users spend within the app. While the exact nature of this feature isn’t specified, its objective is to boost users’ daily app engagement, thereby driving up ad revenue.

As usual, we need to download and load the data first.

df <- readRDS("new_feature.rds")
print(df)

# A tibble: 1,000 × 3
   ip              new_feature time_spent
   <chr>                 <dbl>      <dbl>
 1 153.168.98.222            0      71.4 
 2 119.218.12.199            1      76.1 
 3 208.197.60.31             0      68.4 
 4 235.143.38.46             1      73.1 
 5 86.56.28.141              0      70.4 
 6 51.111.112.107            0      45.1 
 7 165.165.131.102           0     106.  
 8 98.178.26.235             0      14.0 
 9 63.223.57.208             0       9.22
10 149.249.67.110            1      79.5 
# ℹ 990 more rows
…
