Causal Data Science for Business Analytics - Matching and Subclassification
…
Instead inverse probability has proven to be a more precise method, particularly when the sample is large enough. So what do we do with the probability/propensity scores in IPW? We use propensity score of an observation unit to in- or decrease its weights and thereby make some observations more important than others. The weight obtains as

\[
w_i = \frac{D_i}{\pi_i} + \frac{(1-D_i)}{(1-\pi_i)}
\]

where only one of the terms is always active as \(D_i\) is either one or zero. Now we should better understand what “inverse probability weighting” actually means. It weights each observation by its inverse of its treatment probability.

df_ipw <- df_aug %>% mutate(
  ipw = (health_program/propensity) + ((1-health_program) / (1-propensity)))

df_ipw %>% 
  select(health_program, age, sick_days_before, propensity, ipw)

# A tibble: 10,000 × 5
   health_program   age sick_days_before propensity   ipw
   <lgl>          <dbl>            <dbl>      <dbl> <dbl>
 1 FALSE           42.5                4      0.510  2.04
 2 FALSE           48.8                6      0.618  2.62
 3 FALSE           27.0                3      0.419  1.72
 4 FALSE           34.9                3      0.442  1.79
 5 FALSE           40.4                4      0.504  2.02
 6 TRUE            48.7                3      0.483  2.07
 7 FALSE           45.8                3      0.474  1.90
 8 FALSE           60.0                3      0.517  2.07
 9 FALSE           50.8                4      0.535  2.15
10 FALSE           48.1                3      0.481  1.93
# … with 9,990 more rows
…
# A tibble: 2 × 5
  term               estimate std.error statistic       p.value
  <chr>                 <dbl>     <dbl>     <dbl>         <dbl>
1 (Intercept)           7.85     0.0367    214.   0            
2 health_programTRUE    0.308    0.0521      5.92 0.00000000341

Some propensity values are very extreme and therefore obtain an extreme weight. We should probably filter them out to improve our estimate.

df_ipw %>% 
  select(health_program, age, sick_days_before, propensity, ipw) %>% 
  arrange(desc(ipw))

# A tibble: 10,000 × 5
   health_program   age sick_days_before propensity   ipw
   <lgl>          <dbl>            <dbl>      <dbl> <dbl>
 1 FALSE           61.4               19      0.953 21.3 
 2 FALSE           45.6               18      0.933 15.0 
 3 FALSE           57.7               17      0.931 14.5 
 4 FALSE           62.7               16      0.923 12.9 
 5 FALSE           45.9               17      0.921 12.7 
 6 FALSE           56.4               16      0.917 12.0 
 7 FALSE           59.5               15      0.905 10.5 
 8 FALSE           59.0               15      0.905 10.5 
 9 FALSE           57.0               15      0.903 10.3 
10 FALSE           41.3               15      0.885  8.68
# … with 9,990 more rows
…
